{
    "language-data": {
        "native": "日本語 (Japan)",
        "english-name": "Japanese",
        "last-update": "2017-09-10",
        "authors": [
            "Jun NOGATA http:\/\/www.nofuture.tv",
            "",
            "",
            ""
        ]
    },
    "dates": {
        "Mon": "Mon",
        "Tue": "Tue",
        "Wed": "Wed",
        "Thu": "Thu",
        "Fri": "Fri",
        "Sat": "Sat",
        "Sun": "Sun",
        "Monday": "Monday",
        "Tuesday": "Tuesday",
        "Wednesday": "Wednesday",
        "Thursday": "Thursday",
        "Friday": "Friday",
        "Saturday": "Saturday",
        "Sunday": "Sunday",
        "Jan": "Jan",
        "Feb": "Feb",
        "Mar": "Mar",
        "Apr": "Apr",
        "Jun": "Jun",
        "Jul": "Jul",
        "Aug": "Aug",
        "Sep": "Sep",
        "Oct": "Oct",
        "Nov": "Nov",
        "Dec": "Dec",
        "January": "January",
        "February": "February",
        "March": "March",
        "April": "April",
        "May": "May",
        "June": "June",
        "July": "July",
        "August": "August",
        "September": "September",
        "October": "October",
        "November": "November",
        "December": "December"
    },
    "dashboard": "ダッシュボード",
    "manage-users": "ユーザー管理",
    "manage-categories": "Manage categories",
    "general-settings": "全般設定",
    "advanced-settings": "詳細設定",
    "thanks-for-support-bludit": "Thanks for support Bludit",
    "upgrade-to-bludit-pro": "Upgrade to Bludit PRO",
    "language": "言語",
    "plugin": "Plugin",
    "plugins": "プラグイン",
    "developers": "Developers",
    "themes": "テーマ",
    "about": "About",
    "url": "URL",
    "welcome": "Welcome",
    "logout": "ログアウト",
    "website": "Webサイト",
    "publish": "公開済み",
    "manage": "管理",
    "content": "内容",
    "category": "Category",
    "categories": "Categories",
    "users": "ユーザー",
    "settings": "設定",
    "general": "全般",
    "advanced": "詳細",
    "new-content": "New content",
    "manage-content": "Manage content",
    "add-new-content": "Add new content",
    "new-category": "New category",
    "you-do-not-have-sufficient-permissions": "このページにアクセスするための権限がありません。管理者に連絡をしてください。",
    "add-a-new-user": "新規ユーザーを追加",
    "url-associated-with-the-content": "URL associated with the content.",
    "language-and-timezone": "言語とタイムゾーン",
    "change-your-language-and-region-settings": "言語や地域の設定を変更します。",
    "notifications": "Notifications",
    "plugin-activated": "Plugin activated",
    "plugin-deactivated": "Plugin deactivated",
    "new-theme-configured": "New theme configured",
    "changes-on-settings": "Changes on settings",
    "plugin-configured": "Plugin configured",
    "welcome-to-bludit": "Bluditへようこそ",
    "statistics": "統計",
    "drafts": "下書き",
    "title": "タイトル",
    "save": "保存",
    "save-as-draft": "Save as draft",
    "cancel": "キャンセル",
    "description": "概要",
    "this-field-can-help-describe-the-content": "このフィールドにはコンテンツの概要を記述します。150文字程度が目安です。",
    "images": "画像",
    "error": "エラー",
    "supported-image-file-types": "サポートする画像ファイルタイプ",
    "cover-image": "カバー画像",
    "drag-and-drop-or-click-here": "ドラッグ・アンド・ドロップもしくはクリックします",
    "there-are-no-images": "画像はありません。",
    "upload-and-more-images": "Upload and more images",
    "click-on-the-image-for-options": "Click on the image for options.",
    "click-here-to-cancel": "ここをクリックしてキャンセル。",
    "insert-image": "画像を挿入",
    "set-as-cover-image": "Set as cover image",
    "delete-image": "Delete image",
    "tags": "タグ",
    "add": "追加",
    "status": "状態",
    "published": "公開",
    "draft": "下書き",
    "empty-title": "タイトルなし",
    "empty": "empty",
    "date": "日付",
    "external-cover-image": "External cover image",
    "parent": "親ページ",
    "full-image-url": "Full image URL.",
    "this-field-is-used-when-you-order-the-content-by-position": "This field is used when you order the content by position.",
    "position": "位置",
    "friendly-url": "フレンドリーURL",
    "image-description": "Image description",
    "add-a-new-category": "Add a new category",
    "name": "名前",
    "username": "ユーザー名",
    "first-name": "名",
    "last-name": "姓",
    "to-schedule-the-content-select-the-date-and-time": "To schedule the content select the date and time, the status has to be set to \"Published\".",
    "email": "Eメール",
    "role": "役割",
    "registered": "登録日",
    "site-information": "サイト情報",
    "site-title": "サイトタイトル",
    "use-this-field-to-name-your-site": "サイト名を入力します。サイト名は各ページ上部に表示されます。",
    "site-slogan": "サイトキャッチフレーズ",
    "use-this-field-to-add-a-catchy-phrase": "サイトのキャッチフレーズを入力します。",
    "site-description": "サイト概要",
    "you-can-add-a-site-description-to-provide": "サイトの説明や紹介に利用する概要を入力します。",
    "footer-text": "フッターテキスト",
    "you-can-add-a-small-text-on-the-bottom": "各ページ下部に追加する短いテキストを入力します。例: 著作権や所有者名、日付など。",
    "social-networks-links": "Social networks links",
    "site-url": "サイトURL",
    "email-account-settings": "Eメールアカウント設定",
    "sender-email": "送信者メールアドレス",
    "emails-will-be-sent-from-this-address": "Eメールはこのアドレスから送信されます。",
    "url-filters": "URLフィルター",
    "select-your-sites-language": "サイトで利用する言語を選択します",
    "timezone": "タイムゾーン",
    "select-a-timezone-for-a-correct": "サイト上で正しく日付・時間が表示されるタイムゾーンを選択します。",
    "locale": "ロケール",
    "date-and-time-formats": "日付と時間の書式",
    "date-format": "日付の書式",
    "current-format": "Current format",
    "version": "バージョン",
    "author": "作者",
    "activate": "有効化",
    "deactivate": "無効化",
    "edit-category": "Edit category",
    "delete": "削除",
    "password": "パスワード",
    "confirm-password": "パスワードの確認",
    "editor": "編集者",
    "administrator": "管理者",
    "edit-user": "ユーザー編集",
    "edit-content": "Edit content",
    "profile": "プロフィール",
    "change-password": "パスワードを変更",
    "enabled": "有効",
    "disable-the-user": "Disable the user",
    "profile-picture": "プロフィール画像",
    "edit-or-delete-your-categories": "Edit or delete your categories",
    "create-a-new-category-to-organize-your-content": "Create a new category to organize your content",
    "confirm-delete-this-action-cannot-be-undone": "削除しますか? この操作は取り消せません",
    "do-you-want-to-disable-the-user": "Do you want to disable the user ?",
    "new-password": "新しいパスワード",
    "you-can-change-this-field-when-save-the-current-changes": "You can change this field when save the current changes.",
    "items-per-page": "Items per page",
    "invite-a-friend-to-collaborate-on-your-site": "Invite a friend to collaborate on your site",
    "number-of-items-to-show-per-page": "Number of items to show per page.",
    "website-or-blog": "Website or Blog",
    "order-content-by": "Order content By",
    "edit-or-delete-content-from-your-site": "Edit or delete content from your site",
    "order-the-content-by-date-to-build-a-blog": "Order the content by date to build a Blog or order the content by position to build a Website.",
    "page-not-found-content": "Hey! look like the page doesn't exist.",
    "page-not-found": "Page not found",
    "predefined-pages": "Predefined pages",
    "returning-page-when-the-page-doesnt-exist": "Returning page when the page doesn't exist, leave it blank if you want to returns a default message.",
    "returning-page-for-the-main-page": "Returning page for the main page, leave it blank if you want to show all the pages on the main page.",
    "full-url-of-your-site": "Full URL of your site. Complete with the protocol HTTP or HTTPS (only if you have enabled SSL on your server).",
    "with-the-locales-you-can-set-the-regional-user-interface": "With the locales, you can set the regional user interface, such as the dates in your language. The locales need to be installed on your system.",
    "bludit-installer": "Bluditインストーラー",
    "choose-your-language": "言語を選択してください",
    "next": "次へ",
    "complete-the-form-choose-a-password-for-the-username-admin": "admin(管理者)ユーザーのパスワードとメールアドレスを入力してください",
    "show-password": "パスワードを表示",
    "install": "インストール",
    "login": "ログイン",
    "back-to-login-form": "ログインフォームへ戻る",
    "get-login-access-code": "ログインアクセスコードを送信",
    "email-access-code": "Email access code",
    "whats-next": "この次は",
    "username-or-password-incorrect": "ユーザー名またはパスワードが不正です",
    "follow-bludit-on": "Bluditをフォローする",
    "visit-the-forum-for-support": "Visit the [forum](https:\/\/forum.bludit.org) for support",
    "manage-your-bludit-from-the-admin-panel": "[管理パネル]({{ADMIN_AREA_LINK}})からBluditを管理する",
    "chat-with-developers-and-users-on-gitter": "[Gitter](https:\/\/gitter.im\/bludit\/support)で開発者やユーザーとチャットする",
    "this-is-a-brief-description-of-yourself-our-your-site": "ここには、あなた自身やサイトについての説明文を書きます。文章を変更するには、管理パネルから設定→プラグインと進み、aboutプラグインの設定から変更します。",
    "read-the-documentation-for-more-information": "詳細について[文書](https:\/\/docs.bludit.com)を読む",
    "new-version-available": "New version available",
    "new-category-created": "New category created",
    "category-deleted": "Category deleted",
    "category-edited": "Category edited",
    "new-user-created": "New user created",
    "user-edited": "User edited",
    "user-deleted": "ユーザー削除",
    "recommended-for-recovery-password-and-notifications": "Recommended for recovery password and notifications.",
    "authentication-token": "Authentication Token",
    "token": "Token",
    "current-status": "Current status",
    "upload-image": "画像をアップロード",
    "the-changes-have-been-saved": "変更を保存しました",
    "label": "Label",
    "links": "Links",
    "this-title-is-almost-always-used-in-the-sidebar-of-the-site": "This title is almost always used in the sidebar of the site.",
    "password-must-be-at-least-6-characters-long": "パスワードは6文字以上必要です",
    "ip-address-has-been-blocked": "IPアドレスはブロックされています。",
    "try-again-in-a-few-minutes": "しばらくしてからもう一度お試しください。",
    "content-published-from-scheduler": "Content published from scheduler",
    "blog": "Blog",
    "complete-all-fields": "Complete all fields",
    "static": "Static",
    "about-your-site-or-yourself": "About your site or yourself",
    "homepage": "Homepage",
    "disabled": "Disabled",
    "to-enable-the-user-you-must-set-a-new-password": "To enable the user you must set a new password.",
    "delete-the-user-and-associate-his-content-to-admin-user": "Delete the user and associate his content to admin user",
    "delete-the-user-and-all-his-content": "Delete the user and all his content",
    "user-disabled": "User disabled",
    "user-password-changed": "User password changed",
    "the-password-and-confirmation-password-do-not-match": "The password and confirmation password do not match",
    "scheduled-content": "Scheduled content",
    "there-are-no-scheduled-content": "There are no scheduled content.",
    "new-content-created": "New content created",
    "content-edited": "Content edited",
    "content-deleted": "Contente deleted",
    "undefined": "Undefined",
    "create-new-content-for-your-site": "Create new content for your site",
    "there-are-no-draft-content": "There are no draft content.",
    "order-items-by": "Order items by",
    "all-content": "All content",
    "dynamic": "Dynamic",
    "type": "Type",
    "draft-content": "Draft content",
    "post": "Post",
    "default": "Default",
    "latest-content": "Latest content",
    "default-message": "Default message",
    "no-parent": "No parent",
    "have-you-seen-my-ball": "Have you seen my ball?",
    "pagebreak": "Page break",
    "pages": "ページ",
    "this-plugin-may-not-be-supported-by-this-version-of-bludit": "This plugin may not be supported by this version of Bludit",
    "previous": "Previous",
    "previous-page": "Previous page",
    "next-page": "Next page",
    "scheduled": "Scheduled",
    "this-token-is-similar-to-a-password-it-should-not-be-shared": "This token is similar to a password, it should not be shared.",
    "congratulations-you-have-successfully-installed-your-bludit": "Congratulations you have successfully installed your **Bludit**",
    "this-theme-may-not-be-supported-by-this-version-of-bludit": "This theme may not be supported by this version of Bludit",
    "read-more": "Read more",
    "remember-me": "Remember me",
    "plugins-position": "Plugin position",
    "plugins-sorted": "Plugins sorted",
    "plugins-position-changed": "Plugin position changed",
    "drag-and-drop-to-set-the-position-of-the-plugin": "Drag and Drop to set the position of the plugins",
    "change-the-position-of-the-plugins": "Change the position of the plugins",
    "reading-time": "Reading time",
    "minutes": "minutes",
    "minute": "minute",
    "example-page-1-slug": "create-your-own-content",
    "example-page-1-title": "Create your own content",
    "example-page-1-content": "Start writing your own content or edit the current to fit your needs. To create, edit or remove content you need to login to the [admin panel](.\/admin) with the username `admin` and the password you set on the installation process.",
    "example-page-2-slug": "set-up-your-new-site",
    "example-page-2-title": "Set up your new site",
    "example-page-2-content": "Update the settings of your site from the [admin panel](.\/admin), you can change the title, description and the social networks from [Settings > General](.\/admin\/settings-general).",
    "example-page-3-slug": "follow-bludit",
    "example-page-3-title": "Follow Bludit",
    "example-page-3-content": "Get information about news, new releases, new themes or new plugins on our social networks [Facebook](https:\/\/www.facebook.com\/bluditcms\/), [Twitter](https:\/\/twitter.com\/bludit) and [GooglePlus](https:\/\/plus.google.com\/+Bluditcms) or visit our [Blog](https:\/\/blog.bludit.com).",
    "example-page-4-slug": "about",
    "example-page-4-title": "About",
    "example-page-4-content": "Your About page is typically one of the most visited pages on your site, need to be simple with a few key things, such as your name, who are you, how can contact you, a small story, etc."
}